{
  "project_info": {
    "project_number": "997271273302",
    "firebase_url": "https://solodkov-gym.firebaseio.com",
    "project_id": "solodkov-gym",
    "storage_bucket": "solodkov-gym.appspot.com"
  },
  "client": [
    {
      "client_info": {
        "mobilesdk_app_id": "1:997271273302:android:513dfd8399dd64659c60f7",
        "android_client_info": {
          "package_name": "com.example.help"
        }
      },
      "oauth_client": [
        {
          "client_id": "997271273302-qc91m5nqhnnh3fgkf2jdu1e0nea3ujqc.apps.googleusercontent.com",
          "client_type": 1,
          "android_info": {
            "package_name": "com.example.help",
            "certificate_hash": "05b9b865eac6dcb38273afe94f521884d6ce82fc"
          }
        },
        {
          "client_id": "997271273302-76tkamrc8p2nkrhie1agbkt6216f0fcs.apps.googleusercontent.com",
          "client_type": 3
        }
      ],
      "api_key": [
        {
          "current_key": "AIzaSyBG8O_FSlPMqnwVRf3czvf08shGu5Ce7Jc"
        }
      ],
      "services": {
        "appinvite_service": {
          "other_platform_oauth_client": [
            {
              "client_id": "997271273302-76tkamrc8p2nkrhie1agbkt6216f0fcs.apps.googleusercontent.com",
              "client_type": 3
            }
          ]
        }
      }
    },
    {
      "client_info": {
        "mobilesdk_app_id": "1:997271273302:android:cf692699e335f8889c60f7",
        "android_client_info": {
          "package_name": "com.example.solodkovgym"
        }
      },
      "oauth_client": [
        {
          "client_id": "997271273302-p2cc4026en3bu9k4bcrs4rth7n87bf9v.apps.googleusercontent.com",
          "client_type": 1,
          "android_info": {
            "package_name": "com.example.solodkovgym",
            "certificate_hash": "1a7fb2d1d085ee0cbc13e9751a23b9be60503399"
          }
        },
        {
          "client_id": "997271273302-76tkamrc8p2nkrhie1agbkt6216f0fcs.apps.googleusercontent.com",
          "client_type": 3
        }
      ],
      "api_key": [
        {
          "current_key": "AIzaSyBG8O_FSlPMqnwVRf3czvf08shGu5Ce7Jc"
        }
      ],
      "services": {
        "appinvite_service": {
          "other_platform_oauth_client": [
            {
              "client_id": "997271273302-76tkamrc8p2nkrhie1agbkt6216f0fcs.apps.googleusercontent.com",
              "client_type": 3
            }
          ]
        }
      }
    }
  ],
  "configuration_version": "1"
}